0000000000000000
0010000000000011
0000000001110101
0000000000111001
0001111100000000
0000000010110011
0000000001011001
0010000000011010
0001001000000000
0110000000111110
0000000010110101
0000000000111000
1111000000000000
